Initial List
 3 PETROV         
 5 MUHORTOV       
 2 IVANENKO       
 9 KORPATOV       
 1 IVANOV         
10 LINDEVALDT     
 7 TERESHKOV      
 4 SIDOROV        
 8 DANILOV        
 6 KLIMENKO       
Sorted
 1 IVANOV         
 2 IVANENKO       
 3 PETROV         
 4 SIDOROV        
 5 MUHORTOV       
 6 KLIMENKO       
 7 TERESHKOV      
 8 DANILOV        
 9 KORPATOV       
10 LINDEVALDT     
